,TRUNK_FAT,TRUNK_LEAN_1,TRUNK_PFAT,WBTOT_FAT,WBTOT_LEAN_1,WBTOT_PFAT
calcio1,4551.42466369035,36795.3136406442,10.6885779019304,9073.27357867258,74388.0130138703,10.4096076692183
calcio2,4548.04710602739,34671.0516589251,11.3197808204476,10833.095912544,70790.557815888,12.7273483901083
calcio3,3963.02366296605,30236.2050611589,11.2906653268101,8691.01136149284,64581.6623934887,11.3487965176321
calcio4,3445.20412856388,36495.0406675859,8.41444203690547,8544.42119679335,72534.254246565,10.1169713475577
calcio5,3025.13454705928,33753.6301559868,8.00358586609981,6582.49788884683,68912.6316120474,8.32790321444448
calcio6,3400.26088011065,35692.0810472119,8.47708729045813,7580.47074034903,72957.0392213426,9.01995264469047
calcio7,2930.18280280529,32803.4846177438,7.97929460900099,6341.022829944,65952.68136242,8.38059037221492
calcio8,3342.85087836656,33335.3132797439,8.86533023636263,6975.35346650813,67983.9247414723,8.89127946664749
calcio9,4935.85791261855,33534.9721229773,12.4443973939445,10459.6841072797,67856.2004077021,12.7487713066674
calcio10,3704.98843940795,34361.0305209531,9.44088514165918,7203.76332398899,70348.823878577,8.8649954330479
calcio11,2862.35420480735,30065.8637018954,8.44802975264278,6727.18948518156,63909.7106067056,9.07397167863875
calcio12,4188.16259837338,33031.7194676511,10.9632576016871,9331.51499617697,67548.8827384413,11.6408013235567
calcio13,4982.67204223526,33774.11720206,12.5064618397739,8979.89398715441,69209.6555732821,10.985854005263
calcio14,2496.3967475122,28786.1938072388,7.75421619578712,5691.45328165813,63682.1792673109,7.8219414634423
calcio15,3086.09820506206,27924.8339632243,9.67035906524801,7330.50370495021,57824.6118373503,10.7137382925415
calcio16,4139.48246104698,35071.1903009331,10.3127104097029,8512.08842015086,68887.7879271107,10.5196437018816
calcio17,3143.34673657701,32836.0599222016,8.49858758353359,7482.62628366309,68483.481014884,9.39447416571712
calcio18,2897.60252908095,31696.769290905,8.11612536643285,7609.49104930597,68188.5703057922,9.56026343537512
calcio19,5959.04813345562,34125.8952910581,14.4924716478388,12799.2056382231,68288.165813079,15.1403389586537
calcio20,3131.04020362164,37090.7935540242,7.56824743837218,6551.4619429103,76365.5985840293,7.55240899564108
calcio21,2537.00637291385,28808.1406518633,7.91539227396599,5533.51129537937,58452.5164545707,8.2959568424877
calcio22,1743.40420558811,28777.6144039546,5.50292729011257,4999.89392923367,65927.8001849978,6.64065209248939
calcio23,3131.93799569375,29919.2157354919,9.24833066835357,7350.19041405524,62882.3781876029,10.0193385784116
calcio24,5441.69778612836,31837.2521688967,14.2545096860309,12161.5346901196,66627.8039523448,14.8460573961901
calcio25,5645.33483113258,31145.5755801285,14.9558661425028,12776.3685213865,66742.3385407737,15.4403526337701
calcio26,4157.60723540772,35785.8425973923,10.1022394681288,9163.99541476079,73262.3964063493,10.6211357882612
calcio27,3001.08303116494,28408.1723713694,9.30392943060055,6508.48175382618,61215.8145468954,9.19555135697413
calcio28,3238.34077864724,29152.3814303181,9.70599304770224,6900.2427939388,59832.7098120197,9.87373176295247
calcio29,4154.983234687,28414.2148091691,12.3988783973449,8514.73512464978,59567.8820763599,11.9264090551007
calcio30,5251.89004987446,29412.9616381372,14.7778317121482,10704.5453864261,61655.9123936944,14.1698423258744
calcio31,1997.88769657977,30060.0093806249,6.03935566920533,5601.952502751,67496.7649885312,7.26882448619649
calcio32,3731.75702299473,30671.8280872443,10.5747898112263,8818.9129304054,65579.7858265488,11.3540263942287
calcio33,5491.571990928,27723.885975516,16.1106911744091,10201.8700099062,56800.9639460823,14.5749939748812
calcio34,4667.44296031852,34492.043699607,11.569137919597,10600.8934622181,68984.8377693951,12.7324254609361
calcio35,6689.83479924598,33946.8885010001,16.0978553245145,14552.2662832133,66487.6391706245,17.3468766349511
calcio36,2716.06189837123,26289.885774489,9.14658899820474,6317.85367424663,54406.7875002,9.99829045440907
calcio37,4668.85501229812,29719.4864172142,13.2544379797698,8446.74971692733,62502.9116556315,11.4090732933161
calcio38,4555.69411273642,31640.976863465,12.2937513908563,10056.39821013,66979.3341383591,12.5239552427688
calcio39,3747.76620930576,33854.9710945541,9.74904219521721,7906.97723188236,70742.9830961796,9.65167338655872
calcio40,2964.57367239526,32744.1829508728,8.04046199401338,8959.07574479323,68338.3792727846,11.0276445602974
calcio41,4501.78777559661,31124.9178493516,12.2780620541451,8939.80058445334,66358.9874455206,11.3268449076405
calcio42,3847.29293042332,28825.5700418836,11.4403468785384,7209.74424162291,57247.0210248557,10.6741840746438
calcio43,2629.37291217691,30888.0254877979,7.6154138661645,5633.43412415275,62221.5327600595,7.88987618259188
calcio44,4692.45655267524,30682.6742107218,12.9364515317696,10541.177929907,64438.1915724144,13.4859700208285
calcio45,3780.00095790175,28390.3475324969,11.4177221549067,8528.33594103641,60657.1917063877,11.7988333891931
calcio46,4724.16118978989,31001.6918077541,12.8869031531795,8770.99892178317,62870.5834931779,11.7074099717388
calcio47,3347.41351101753,29640.5935910869,9.88047934450463,7871.00504411612,61685.261179628,10.8113070989824
calcio48,4218.33176460884,30166.6344901541,11.9379129468422,8789.35644388311,63026.9887340699,11.6983908569728
calcio49,2939.30924256493,31832.0127529075,8.21619256413638,6329.32854618565,67997.1336008342,8.14324377668345
calcio50,2367.14456556845,28053.3147836386,7.58216311624872,5165.29779125607,56309.7564658877,8.04257880929212
calcio51,3664.78519992937,35684.850608315,9.09929626793516,6837.47324050351,70311.3026564706,8.53028031903957
calcio52,4096.7637313022,31237.5013801464,11.2964628397044,10038.2959178135,64978.3580158826,12.8147335431938
calcio53,2791.93435544616,30064.6308569141,8.28279158871776,6183.53651187544,62521.1188354112,8.63489325687201
calcio54,3395.76138363749,32489.0490201253,9.19152102834654,7387.59717115478,67228.9268844497,9.4440685239949
calcio55,2638.93193634258,28910.2512900849,8.08676119304321,7076.52648999523,59679.7467555556,10.0509359882965
calcio56,3497.87473514759,32480.1312781176,9.50291784838306,7635.49662721408,65813.3191269846,9.97806166596779
calcio57,4297.41858432872,34684.4577069099,10.7114363391841,9299.46265705275,71899.2895017701,10.946024333622
calcio58,2442.54120241119,34435.5820668109,6.42861180781864,5986.86713254947,73056.8427897666,7.22042635263175
calcio59,4231.69974621236,34689.3928395437,10.5758343432296,9438.01494426479,69450.0373393348,11.4255983736043
calcio60,4173.09746587859,31123.5915157674,11.5281716966326,8036.59145170453,61591.7552086031,11.0282528371566
calcio61,5890.45254320525,32595.4164460722,14.9047668678448,12675.5050603368,67476.9778601789,15.124045208563
calcio62,3693.87829995332,33700.1974706355,9.62670843202757,9325.7658730253,69546.3803989877,11.3165990564675
calcio63,3365.23762478908,31107.7084747076,9.51343560141649,7344.6568056378,63862.2024004518,9.85534055677992
calcio64,4986.49751216174,35965.7988646271,11.8406779195404,12275.4555463934,73103.1849910814,13.8142021467818
calcio65,3763.46878317002,29258.280617936,11.0910008833642,8753.32119396866,61680.0487461947,11.8691666713331
calcio66,4831.95222823225,31946.6879027755,12.8192677978669,10251.0506794121,65586.5769118638,12.9656052259086
calcio67,4615.89430048077,33177.0013711216,11.9096278263524,9205.43639876689,67546.9436983297,11.504115713647
calcio68,3449.71203494889,31049.9535153802,9.79455913103072,7607.08026806833,64167.3701750425,10.2145711836657
calcio69,3917.11780376328,32050.4338042457,10.5963276643853,8919.12225373862,65682.5201512291,11.4062423526934
calcio70,2454.08190100309,32057.9207675592,6.93366235918624,6369.33047785736,67912.5547614132,8.19740998042641
calcio71,4178.02961432939,30803.0470743524,11.6065031457881,9132.09524962597,63244.6275053045,12.0330603159489
calcio72,3722.67290123214,35861.318585745,9.14919511635257,9700.46505637488,71177.3864011199,11.4792674170759
calcio73,5476.4022463917,35023.1114773961,13.1915026203137,11103.4756513193,73402.3647915243,12.621468573741
calcio74,3718.83254838203,31990.0949728877,10.1747085948374,7591.7548802967,64570.9997730985,10.1151672664303
calcio75,3422.76265725429,33339.7678331916,9.07498234023325,7241.93061916197,66875.4134072878,9.3519268994271
calcio76,4837.50887538773,33093.3949917342,12.3376195325161,11595.0074111005,66478.1663176323,14.1926479703435
calcio77,3601.1288829428,30467.0686911523,10.2952359346344,7487.97956102137,63046.2593878572,10.1712763105479
calcio78,3758.17673489462,29064.4987347846,11.1481358225957,8434.67773960397,56924.8826752873,12.3641448313732
calcio79,3888.55967989894,30496.9922162893,10.9810607172119,8665.01336469352,64370.7753766895,11.371090634118
calcio80,4216.2029400489,37495.8511624959,9.84100031402936,10014.7518607269,72864.5947947729,11.5763486575226
calcio81,4074.80668381503,36856.1839449978,9.70063479730378,9423.59637940648,73826.2430798574,10.8613001804349
calcio82,4419.2647115142,27476.9308401698,13.5237513644622,8584.02280595949,56770.1345536311,12.5844116364494
calcio83,3762.70847427602,32065.1467600171,10.2357509738273,8477.10172348865,67545.2794769197,10.8201618145789
calcio84,4936.38599342619,33828.7156377702,12.3533254488044,11901.8062398017,68338.7282163052,14.1917079164355
calcio85,3778.59558778663,31231.0123090377,10.5234047256261,9150.25597860584,64462.3450871586,11.9026959810848
calcio86,3517.81611086383,34447.5761559428,8.98191474222208,7908.93008437871,70070.4794071308,9.67581128102018
calcio87,3210.11238508732,25871.2948243881,10.781684046522,7301.47270894267,54283.4731621771,11.3736313442512
calcio88,8644.3851565426,33515.4346818938,19.9441849471734,17085.4141712001,66665.0151676101,19.5025633024163
calcio89,4240.07876741564,34448.6076250743,10.679772626598,10108.8567459938,70964.2124302202,11.9706279930514
basket1,4546.82444732678,33164.6018893837,11.6884055289586,10275.1455550394,70067.2067845643,12.1796020183285
basket2,5501.97228083414,39353.4023362592,11.9003253620491,12092.2454553861,81115.7995560157,12.3434304973586
basket3,7935.45810444666,40269.1179801672,16.0779748230405,17687.4906724488,82064.3377837798,17.0925177319548
basket4,6113.12771485626,39831.2899978031,12.9722166756088,11396.5734460942,81311.676569631,11.8220614887016
basket5,3710.0889447169,29980.5918183074,10.6965893707923,10768.4581647431,63864.663198285,13.7676404607925
basket6,4080.03818987811,33313.623628443,10.6607007540774,9092.83046933971,68755.3927214719,11.2064565821037
basket7,4597.52369012698,29450.0945989978,13.1683227993946,10680.4095032852,62755.4051820653,13.9669326683901
basket8,4159.18047964127,33450.009500664,10.7837503825545,9141.56615255753,69779.1088213989,11.0860285988793
basket9,8589.3883259367,36991.0351253747,18.33645020778,15464.2360289018,74154.1939716666,16.5307101417167
basket10,3319.82130662304,36994.7604194352,8.03572697825747,6866.11241232383,74868.7707700949,8.08009046260536
basket11,4700.17375595326,34785.9730552297,11.5631041030629,12737.5502835816,73988.5514612255,14.0305061747485
basket12,5259.99086440936,38916.937439883,11.6368430116217,11676.4540837082,80715.3160262626,12.142901872592
basket13,6800.9231584456,39056.0968392572,14.4710744935331,12480.0552943526,81131.3417782551,12.8098934443959
basket14,7039.11234059664,35675.7145235113,16.0135851505519,16255.3532149045,75052.5305284705,17.0505038252483
basket15,3716.04974273522,34656.5690898874,9.46111336505572,8724.43552478201,72826.8860084018,10.269310144869
basket16,3888.81849275995,25574.5700441006,12.8251442063516,9632.9275454949,54875.3957837491,14.2039681736331
basket17,3241.96372839515,35803.7796810099,8.09469678695639,8007.11568022541,71822.8415957053,9.64302904997379
basket18,4704.25959647452,37706.547173645,10.831629343348,11962.9766334014,80051.7490192445,12.5185870783533
basket19,8295.45178899402,37088.3352856555,17.8037953775817,19841.4701545906,79842.822221263,19.051800750132
basket20,7907.1715541694,34245.1634144419,18.1479028582963,15601.1505630763,70055.409967071,17.31737264246
basket21,3927.98641586872,34679.3415429274,9.9233215413756,11301.6428508358,73130.5723500719,12.8512403566397
basket22,5960.26445245654,30327.3731582028,16.0128592687303,13623.3044269633,63754.0346102685,16.8861098141935
basket23,5929.8945937982,32757.7133342648,14.9687532498538,13172.7358601059,67331.1206004215,15.7783074468735
basket24,4847.78405799649,33866.0458317705,12.1290562945532,11374.4120202079,69658.0891348174,13.3702048971544
basket25,3196.11518519582,33199.8351650933,8.57306316450348,7472.79415289919,71905.6703700176,9.0339727793482
basket26,4102.58747134129,35758.212613856,10.0115600292954,9272.11161238103,77455.0296686221,10.221332358523
basket27,4319.05484099723,30136.9620061459,12.2160402801689,11379.8123368493,65621.4174582285,14.1466935339541
basket28,4147.06598072679,28050.0566642464,12.5815542407946,9560.54317514394,59167.4201723279,13.3750118263586
basket29,11958.6404636719,36208.2575290121,24.3059907185984,24292.2712204752,73411.2628634184,23.9975637064439
basket30,6462.09378578991,35356.099959444,14.9399237890158,17945.39374418,76251.7981690571,18.1779731977884
basket31,4674.99932905838,36668.9794831292,11.0485400712478,10668.0006588572,76165.0486423351,11.823507263543
basket32,10223.5224848571,38323.6279178729,20.6007478998996,19852.4900348313,82243.2454309119,18.7701244467622
basket33,5886.19848780467,35387.6290471889,13.9247533710826,12408.4074369796,74482.5411346896,13.7018808416362
basket34,3890.95881736896,31372.0934506412,10.7512532310861,7799.87707478077,66667.2365085126,10.0290716677546
basket35,6491.83787058022,37132.1376111205,14.5062486173648,18407.9111868994,77429.1795133111,18.4547314443603
basket36,3221.69519238281,33585.9465399669,8.49131967194827,7836.58701747874,71454.8200473068,9.41038257570805
basket37,3050.56852500193,29067.6702768942,9.26363715833173,8288.28730053889,61767.8633451083,11.3197207239864
basket38,2937.62890771095,36919.1026576374,7.16661338015645,7883.81112104606,74977.4645015248,9.1005905510249
basket39,11659.1149459194,38622.953250588,22.6639239773404,24956.3623508718,80442.7374156218,22.8652938540324
basket40,2287.79035999139,23823.9094604482,8.55546012822181,6056.36015236187,54104.3264719728,9.62369162032579
basket41,8599.33756961909,36457.6196794536,18.6092858765416,17736.8406784779,73935.7316014496,18.6499160532829
basket42,6560.73104011489,34955.0131164592,15.4156705413216,13647.7316479034,71713.3531458621,15.2959140934268
basket43,7459.83502880938,34805.4417100715,17.2556786506548,18603.5098828816,75816.2960711795,18.939299741848
basket44,3968.70014585352,34997.8037680117,9.89225219873938,9934.19484014161,73708.4020729598,11.3525922516802
basket45,6083.85561509245,36883.5136511452,13.8477660630143,13031.6098753791,78025.6461821739,13.7586615281275
basket46,3419.96490176275,32967.9876638219,9.08894180382483,9173.95491818113,70644.4679888351,10.9764777065585
basket47,3750.70054061888,30906.7066382341,10.5811805294943,9344.5461651862,65560.3391105568,11.9848325344457
basket48,5190.60317039882,32728.5429451447,13.3273977519575,13304.9066317783,67878.5115072535,15.6813497613123
basket49,5176.25434904628,36157.5503494344,12.2035238535584,12420.834654516,75176.1733903961,13.6282478459764
basket50,4320.49006556819,35043.4393522181,10.729474372121,9971.93378977948,72996.4703477668,11.5458542687438
basket51,3960.67437916842,36131.9696301101,9.5585876836207,11012.9819301917,80363.4085249644,11.46688697719
volley1,4138.08246671121,40189.7869497491,9.07839293915899,10526.3608553917,81329.7783688173,11.0190981575078
volley2,7287.17729612125,35940.9353181422,16.4230926770247,16383.0389023924,69920.5045205517,18.2469362881663
volley3,4384.11908802847,34332.0189210524,11.0666996687486,10924.6120175796,71010.2967359272,12.8391907386635
volley4,3599.23999917956,31388.5415740712,10.0262106572542,7973.44434555172,64471.8815297294,10.5589381387342
volley5,3617.37519110627,27772.7320048165,11.2536152604235,8561.32768663222,58359.8057123756,12.2981009733718
volley6,3800.02732453257,33961.8652536508,9.81215271915654,8701.22885248076,71331.8538510428,10.4203521082971
volley7,5122.44794922089,41612.2451911922,10.706963443072,11107.1114194684,81775.9448444469,11.5380748965145
volley8,3589.08608146994,37522.927548337,8.48294196132368,7225.21747333803,75808.0853331968,8.36082076461216
volley9,7864.68746227907,36736.7192865967,17.2355615168081,15801.1119286319,75183.5899684422,16.758831788989
volley10,4607.87637159808,31621.9144895731,12.4694658820762,10122.6623699224,62546.3646882981,13.4306211365467
volley11,4475.75495019917,32930.1448272513,11.6803064477608,8846.54760215509,68433.4332589518,11.0075285390865
volley12,4813.19406417217,35689.6327886165,11.5312778367364,9539.12433236756,71703.2324781629,11.2636749052164
volley13,5225.51058061343,41951.811932856,10.7970134284904,10517.3428949864,80860.7968312102,11.0919976654883
rugby1,4877.07476035283,32556.3573252301,12.710466428031,12205.4306362216,71850.2616521507,13.9415240736589
rugby2,6310.6681018824,35195.3252745286,14.8987306305929,13959.950403466,73956.1281675505,15.3064603314977
rugby3,5215.49353598379,36714.4359857549,12.0929444124154,12403.309576412,76850.0244428388,13.2893761770994
rugby4,8793.28996567023,35232.756152445,19.5700945320271,18396.3022540493,74888.3727683006,19.0088962148257
rugby5,3575.80773081393,31841.0951938764,9.87100328621418,9864.34511071928,67949.6179712587,12.1887819779443
rugby6,7252.04935161504,34589.0615205076,16.8696273189841,15783.7554399635,73703.7173142536,16.8753664552561
rugby7,7513.96244287316,41074.4202389219,15.1191862136839,16388.7072704137,85748.7472787772,15.4725524093687
rugby8,14194.410722851,35054.4303220593,28.3002511247161,31543.6076621383,73380.7496655126,29.1135223390006
rugby9,3692.09319510056,33781.1303450466,9.59481713829666,10233.2462127184,72438.5696597331,11.8618762780975
rugby10,11978.4018166469,41112.1416981543,22.1162347150053,23765.5893505304,88498.6910639357,20.4823990348071
rugby11,6784.77400575804,30902.4430925331,17.6011657850707,14913.250954719,66547.4249894927,17.6014891689225
rugby12,3624.68415013971,30805.443397047,10.2328301822848,8960.57128564253,65186.2985722532,11.5599893195929
rugby13,5029.04669281926,34121.6616976988,12.541286254529,12759.212669942,73046.1455229148,14.2813765565459
rugby14,10545.0408308858,34822.7189444821,22.7917098992477,21528.8117175205,71526.1398561005,22.347207984183
rugby15,13135.3664908938,42624.657391192,23.0905634454584,25689.0332843142,84237.2181269047,22.5555564521762
rugby16,8234.0486092944,33309.8523025333,19.4211286650892,17347.4961502405,67403.465491672,19.7342884415849
rugby17,8516.86768771839,35621.1798169482,18.7999563571406,16372.6856900291,74984.3472812587,17.155889026176
rugby18,11373.5730844623,40091.0795028928,21.6229174154675,22833.9946963401,81740.2640690244,21.0734992546467
rugby19,11664.0809245514,35550.7311597706,24.2445026495241,23864.3817478678,74748.4796431789,23.3045162033447
rugby20,7008.6826009026,39450.8224105547,14.7226165789649,16837.4264972194,83470.6291728097,16.1375868303576
rugby21,5972.64971859816,28747.6386713417,16.8063471794476,12934.6322768778,62209.2854997148,16.4926205475199
rugby22,3507.16319724886,31579.0981377687,9.73072137982285,9194.79542074771,65825.5875186053,11.7447337353484
rugby23,4419.33788665787,29811.2161776987,12.557939067824,11604.9747528459,65610.7648662443,14.3819246840571
rugby24,7893.80412749376,31562.2998226134,19.5361698147164,18135.2959216375,65794.10743092,20.7288924537236
rugby25,14825.9500807001,40011.2260549577,26.5087535560724,30628.7026340552,85369.8938843387,25.5066279294601
rugby26,14434.8546890937,39203.5211455584,26.3510028381988,25779.9472690497,83939.8585453862,22.6747418744699
rugby27,7674.19126000561,33931.1722500205,18.0376289977297,15950.9985853863,70870.6348016611,17.6770455270406
pallamano1,6476.65156028972,33783.0775069376,15.6802748744633,17150.9476325824,70175.0115852267,18.8667812675897
pallamano2,4715.5527528397,31189.7588303786,12.8407435448777,11200.0418827003,64152.5429074355,14.3457100277949
pallamano3,7951.98513902785,33524.0603392454,18.7301958637682,15665.5389100899,69768.6347131793,17.6184680439027
pallamano4,7877.19512035611,28172.0259559444,21.4604573535808,17679.5313752293,58700.4947961542,22.3250992988928
pallamano5,12261.4492291128,31285.8397116632,27.5748662433819,20889.3436019441,65879.5611440915,23.2017829681465
pallamano6,12326.4864290928,34364.2145282501,25.8848308997083,25594.7939520791,73273.996351211,24.9686163347849
pallamano7,2647.76924047308,24434.9967386297,9.52366759192147,6207.81648032753,50219.1845053854,10.5034379974058
pallamano8,7857.6987384644,35183.4142108443,17.8919650080908,21504.4138461205,70476.6542146528,22.593674078401
pallamano9,6903.19949302326,33693.851305367,16.568363408919,14579.663228991,68340.1622694011,16.8674787031485
pallamano10,6667.01914772371,25580.6519099967,20.261527862062,15630.2875046571,53312.9030254349,21.7970581690096
pallamano11,5823.77858906128,35568.609107979,13.7265924278982,15257.9651941549,71071.1718683672,16.9672595344282
pallamano12,4121.24910528434,34226.388014039,10.4772988429102,10196.9050816704,69426.7250582802,12.279299749164
pallamano13,4638.63105750321,31621.4036060465,12.4841591752853,11438.7916708749,65750.7462121999,14.2022664960959
pallamano14,6235.72447248544,29819.7808936747,16.955041519315,13803.9258094228,59958.3808206945,18.0370536686895
pallamano15,4139.48752954345,27504.6254834908,12.8251948621121,9859.39169868435,55655.6325876982,14.483370502293
pallamano16,2839.31658208728,25891.0269551519,9.60967154163988,6098.80216955958,53925.0194988219,9.67676850628802
pallamano17,8628.48354450909,34445.3430398457,19.5363193700367,18115.1152448123,72136.8182957372,19.2865459678151
pallamano18,3984.51649342619,24468.3548721051,13.6845115580183,9202.54063799049,50545.1920541607,14.7673164267689
pallamano19,3498.41583203973,27813.9118819978,10.8907493002437,9368.92955301933,58687.6198617625,13.1620594570919
pallamano20,4070.25639668757,28501.8861010111,12.1924553675972,9788.23015095921,61489.7521253212,13.1632121596291
pallamano21,4373.0565233216,30326.7903873249,12.2914053093914,9691.46813611511,61866.2368455389,12.9731586482647
pallamano22,4569.80772802394,30978.6546325038,12.6123570958057,10824.2328733979,64209.2802958377,13.9220579718071
controllo1,4903.42305007362,30123.1367144296,13.6683080530108,12154.5923440198,62095.2896024497,15.6976026594161
controllo2,4723.60148773605,27262.176825194,14.3940639445614,9885.32661491569,55885.95924374,14.3794752014231
controllo3,5088.3713208418,28707.3754906825,14.6578642220544,11657.068496258,58979.4971993215,15.777058267226
controllo4,13737.9411718631,38676.3804704045,25.8207660358283,21599.2067988827,71689.5411976647,22.4657082643832
controllo5,3977.50919797025,26821.0328735712,12.6465234828131,9063.32107864712,53037.2167225582,14.0235081531293
controllo6,3767.53916672736,26645.0872301344,12.1347417594362,8263.27164179283,55124.6027163499,12.5577420090833
controllo7,5010.09293130392,27320.6303760473,15.0928955539919,12399.0802068644,57795.2554684588,16.9535943075061
controllo8,10517.5041499412,32222.2113980911,24.0965347541955,24106.0255545841,67523.0693212275,25.3960894147898
controllo9,3017.66817279433,26748.3247085353,9.95741570274445,7570.35324729963,54375.2494193859,11.7860599054715
controllo10,5192.78284837113,33231.337972251,13.2330773642143,12211.0502496642,68410.1171986161,14.6525895635397
controllo11,6338.10957752341,26196.5678644583,18.9365820640048,13457.013927481,57456.6395661766,18.1562982764816
controllo12,4264.37664887179,28840.4626459916,12.5422130536728,10214.0867669867,58984.4729260571,14.109185201991
controllo13,4894.77796388003,26180.5243358953,15.4131435620941,11010.0703808608,56179.4229148461,15.7649433428109
controllo14,4737.71497378768,32325.5401651458,12.4999676354036,11176.0454725539,66756.8607023444,13.7663950775849
controllo15,2266.39958939286,23602.7749526731,8.54043589531159,5112.93439317198,48656.1671579144,9.10919645551695
controllo16,4464.33083992472,26653.7417238084,14.0668912993011,11154.8227231729,56419.0076441268,15.9408057942743
controllo17,4824.22156852815,30638.8864476351,13.3131927159023,10306.2148838393,62241.6492143826,13.6923039558818
controllo18,4314.4255312914,28976.314166353,12.6070119639395,10431.144805275,57312.9149344232,14.7384720493869
controllo19,3706.95418706559,23925.1115338905,13.1504381849251,11225.3391807176,51262.7601561968,17.2577052620728
controllo20,,,,,,
controllo21,3296.93439172647,24581.7346827272,11.5482158705079,7902.36948691293,51570.9020841608,12.7587943137073
controllo22,2731.93725368862,28305.4581700919,8.59977100328863,5702.54157045048,56695.3209487695,8.7677360271769
controllo23,3183.24882008084,32254.9093269265,8.78981764090306,9437.48036442393,65085.4680108064,12.1739999912236
controllo24,5721.99866004083,27525.6062641653,16.7487401701677,11523.784106878,55751.3171964399,16.3489249278283
controllo25,2199.25493882045,27124.097285283,7.3210571010961,5272.3011575351,54135.3794960665,8.50045902801425
controllo26,4914.09901328405,26089.7254274484,15.3786416140619,11096.7171740232,54304.8414674618,16.1537297811526
controllo27,3197.04996369656,26908.2773228541,10.333761779266,7999.66211895612,56205.8974951353,11.8922967854681
controllo28,3850.92735717023,34577.846150489,9.80521654282684,8771.92868888863,72779.2184148298,10.320456909878
controllo29,2997.74543568689,26849.8629166085,9.76427589925666,6495.98575273714,55857.6497284814,9.96467541448893
controllo30,4044.17818677202,27347.3495374432,12.5826773038459,9209.82304854126,57223.5576062797,13.3095272193137
controllo31,3658.09469004525,24350.6745438193,12.7837463852059,9199.71264398434,51576.4670231003,14.5545920985428
controllo32,4526.25220117704,31177.7804353068,12.4204152678021,10501.0481013816,67382.4420493901,12.9986572523278
controllo33,3687.8496153844,31315.2599915697,10.2829662814048,7291.50197471991,62066.4561442633,10.0660938217777
controllo34,3789.50157411621,31936.9301521962,10.3443726434558,9692.16342366275,66650.4964908655,12.1734795586372
controllo35,3789.01281592192,31220.7098879175,10.5566628966705,8289.27139325186,64884.3762246026,10.8475292380259
controllo36,7815.77595991608,32060.2456920791,19.1575727496558,15029.3631356838,67155.6996432467,17.6268802052254
controllo37,3718.03608399791,23425.4174062984,13.3497859512761,7529.34166952055,49999.9832442541,12.5507666481854
controllo38,3936.10880338472,25996.2407621975,12.8792246915925,11028.3740184345,54185.7274555279,16.2894347513512
controllo_new1,12702.38476,26630.87069,31.6475188,24853.78553,54019.14373,30.34677729
controllo_new2,5234.3458,25997.68037,16.4060529,12828.94242,54677.28409,18.31562808
controllo_new3,4235.643742,28125.40255,12.75705927,9795.668065,59122.80273,13.57182938
controllo_new4,5388.266881,24235.58318,17.75235857,12839.63547,50504.08213,19.4608955
controllo_new5,4930.382346,33391.32863,12.50810542,10372.37909,70454.64606,12.28329133
controllo_new6,2498.352872,23047.25419,9.545819977,7565.073961,52666.56464,12.04209364
controllo_new7,6156.510154,27343.87946,18.03927203,14507.23593,55755.28065,19.93898027
controllo_new8,4792.760773,27913.53906,14.32852824,10126.4681,58833.57192,14.18142216
controllo_new9,6110.101117,29094.9039,17.00678985,10962.28282,59002.06125,15.09018839
controllo_new10,3725.107846,31844.34589,10.24772847,7453.891329,63111.41789,10.20297852
controllo_new11,4559.175208,27572.71148,13.84167751,11183.87492,56817.9258,15.75031873
controllo_new12,4695.026521,27209.63147,14.33428413,11006.34737,56214.32974,15.60489177
controllo_new13,9415.446361,26677.53869,25.43283554,20363.02942,54135.80145,26.22280141
controllo_new14,3695.106848,30903.82684,10.42608845,9521.35771,64670.32419,12.36288813
controllo_new15,,,,,,
controllo_new16,6164.648744,26540.0997,18.43442879,13600.64533,56942.32161,18.52760716
controllo_new17,7137.34348,31537.32764,17.94449361,15170.58032,65866.14963,17.93866277
controllo_new18,,,,,,
controllo_new19,9870.814873,28226.30048,25.50648103,20475.29181,63342.7024,23.70329401
controllo_new20,6116.876957,27430.84963,17.91491204,13902.59442,57210.17623,18.95629138
controllo_new21,2861.972507,30822.98297,8.250321946,6998.453165,63721.67239,9.440418618
controllo_new22,6946.352776,25842.44922,20.86491047,15959.62021,54835.10293,21.7806368
controllo_new23,3964.166345,25509.02,13.12267485,8346.662569,54190.08754,12.7679243
controllo_new24,4073.632695,30375.57325,11.54086047,8653.844632,64049.77291,11.42308956
controllo_new25,4499.306293,28136.54071,13.46012157,10421.14199,57367.86942,14.7955501
controllo_new26,3720.04209,28213.44643,11.38942618,8341.87972,58953.97133,11.93570779
controllo_new27,3202.226649,24807.51378,11.19363767,7802.480826,51108.00875,12.68671657
controllo_new28,4515.067637,32593.50744,11.90917585,10918.36943,67610.98649,13.3584588
controllo_new29,4518.102566,30916.46721,12.33282524,11762.52377,66407.3271,14.34219803
controllo_new30,3371.396248,31551.57461,9.440078617,8996.352443,67199.1989,11.36597921
controllo_new31,4859.06965,30740.23399,13.31524898,11098.79198,63242.93386,14.35136351
controllo_new32,2796.556952,22647.02525,10.70603564,7150.584513,46928.12921,12.65916145
controllo_new33,2114.810495,28029.70815,6.837073076,5996.290755,62914.85042,8.289682128
controllo_new34,4577.696412,27066.58018,14.07452445,11131.83655,55928.66752,15.88737075
controllo_new35,6118.611756,28739.57589,17.1679564,13301.07089,60337.75729,17.37063649
controllo_new36,4812.467988,31411.31942,12.97149716,11121.1265,65296.6776,13.99901348
controllo_new37,5316.911809,26776.12839,16.20842125,12139.12397,56165.98663,17.11700248
controllo_new38,8291.779555,31739.74479,20.28739269,15747.48957,66522.31763,18.46923931
controllo_new39,5714.97489,30047.61776,15.58761276,13442.84198,61751.37719,17.17834449
controllo_new40,3514.168341,24246.30839,12.40990401,7600.739659,49539.76858,12.77696809
controllo_new41,6125.968308,24163.58136,19.75884169,12748.99819,50053.21172,19.53494818
controllo_new42,3371.285953,24228.38299,11.87144012,7261.522531,50420.17818,12.05749345
controllo_new43,3274.167301,24352.04927,11.58083854,7736.035177,51995.73836,12.43495664
controllo_new44,5047.143085,28145.04938,14.82315382,11647.60748,58852.96947,15.85385309
controllo_new45,4429.031658,26406.35978,14.02860494,8346.576955,57175.20054,12.22034135
controllo_new46,9222.159534,28429.90148,24.00852244,19545.14133,59695.97833,23.7307833
controllo_new47,2317.479316,28399.6233,7.361894715,5141.339873,59536.5791,7.607640955
controllo_new48,5771.809279,31137.12029,15.23101723,14267.20277,66041.96475,17.03604183
controllo_new49,5586.544623,31209.51886,14.77958148,12506.30348,64165.32621,15.65778874
controllo_new50,4616.621165,31855.76502,12.34131764,10220.06862,68257.45818,12.47124185
controllo_new51,8305.220018,30775.90005,20.80088269,16855.51039,63396.80339,20.25950498
controllo_new52,4069.078124,27837.10137,12.46147586,10096.3365,58033.27502,14.22342667
controllo_new53,4526.252201,31177.78044,12.42041527,10501.0481,67382.44205,12.99865725
controllo_new54,14356.75994,35104.30811,28.54753623,27810.94161,70244.17097,27.48999957
controllo_new55,3789.501574,31936.93015,10.34437264,9692.163424,66650.49649,12.17347956
controllo_new56,2670.472964,25949.65909,9.067046818,6567.580373,54744.3128,10.20683837
controllo_new57,2628.635903,33234.69979,7.113019403,6775.499069,72267.67554,8.20748976
controllo_new58,12183.53757,37234.60637,24.07146263,22651.78219,77892.38217,21.64502698
controllo_new59,3351.606735,26553.60474,10.93617303,9222.074456,56501.99519,13.48005422
controllo_new60,5688.518859,31336.53538,15.12029963,13448.46189,64046.75437,16.83699478
controllo_new61,4352.873611,32490.78692,11.52676787,8710.833095,66440.09694,11.11790381
sollevamento_pesi_new1,3936.108803,25996.24076,12.87922469,11028.37402,54185.72746,16.28943475
sollevamento_pesi_new2,3572.815502,27836.14746,11.15324741,8348.100603,55782.01409,12.5795579
sollevamento_pesi_new3,2645.138304,28960.36355,8.148792876,8176.478392,59857.98225,11.50163886
sollevamento_pesi_new4,3844.558681,29743.05699,11.23899161,11312.84456,63732.28244,14.62839464
sollevamento_pesi_new5,12733.13354,43759.23104,22.17163497,30907.69516,86335.47784,25.66085837
sollevamento_pesi_new6,3858.990328,31896.30003,10.50935004,9139.752894,65482.12096,11.74764679
sollevamento_pesi_new7,16178.88458,34430.53063,31.35804668,30592.44015,75745.94113,27.87877371
sollevamento_pesi_new8,4501.002808,26296.99505,14.28447163,11539.46925,56607.09427,16.31506355
sollevamento_pesi_new9,6282.352774,31118.87262,16.3856086,12410.15255,63882.18511,15.57725116
sollevamento_pesi_new10,4214.805393,23473.06834,14.81990589,9988.46605,50092.68773,15.9383643
sollevamento_pesi_new11,7441.701826,29640.06212,19.6783674,18612.65031,61052.2424,22.67806334
sollevamento_pesi_new12,3522.373414,27117.3501,11.2284238,9502.534934,57764.32725,13.59165844
triathlon1,2959.498878,24514.50708,10.57182476,7669.566526,49070.28625,12.98862947
triathlon2,4038.5374,28373.79829,12.21914342,9071.364459,57987.36938,12.98749582
triathlon3,5237.4705,31130.5361,14.11903092,10905.48475,62094.91197,14.4210818
triathlon4,4741.324032,31150.38247,12.99856035,8833.271738,62668.35212,11.96818777
triathlon5,3156.06439,27629.10326,10.04733706,6856.496322,57827.30703,10.19316683
triathlon6,2466.366236,25094.02687,8.741668279,6046.500326,51007.82742,10.15615849
triathlon7,2628.429868,29352.14799,7.947905405,6708.191192,60878.68933,9.394424534
triathlon8,3700.978289,27800.56287,11.51201921,8339.424568,55459.32388,12.56161484
triathlon9,4181.284622,30946.83324,11.65782065,8938.909281,63164.484,11.94412691
triathlon10,3371.712902,28284.09064,10.38450255,8040.53732,59967.58259,11.28451355
triathlon11,2449.472871,27804.61326,7.93530833,5569.232623,58152.47393,8.43214968
triathlon12,2667.384857,27909.90753,8.549257142,6003.113107,55603.87113,9.363199722
golf_new1,10518.96358,32950.07787,23.7759731,19020.40315,66595.10592,21.51173544
golf_new2,2858.487145,22814.52239,10.89586949,9232.134158,50212.59792,14.97454415
golf_new3,9470.584702,23608.18655,28.10270937,19155.30613,48150.32911,27.39343336
golf_new4,9339.366701,29187.75959,23.92012765,19206.09865,63118.0996,22.65747274
golf_new5,5557.045065,29071.47405,15.70462208,13105.72362,60521.58508,17.04557746
golf_new6,16142.77662,31708.16533,33.20527358,27610.79775,66548.95538,28.398985
golf_new7,13955.88064,32047.94584,29.93036665,24977.49863,64916.9353,26.98547995
golf_new8,7552.040332,27727.63178,21.0068081,16785.597,57613.9832,21.77242745
golf_new9,9373.66751,24117.95511,27.51829105,18126.59759,48235.95637,26.39529515
golf_new10,7190.311885,29759.05932,19.09473667,15310.81227,60080.48741,19.52616933
golf_new11,8906.661555,26710.84426,24.54428572,20133.83578,54772.25627,25.92241637
golf_new12,5769.993897,26795.24173,17.3515062,10738.45258,56093.39637,15.41596837
golf_new13,10029.3621,29748.85713,24.65145533,17526.86426,58315.23029,22.19228188
golf_new14,15148.97073,29144.3403,33.68072454,26118.74187,57801.66317,30.1577621
golf_new15,2062.053915,23225.07039,7.967539362,5920.55214,49969.52686,10.19248716
golf_new16,9774.091888,31954.02892,23.04045479,18383.21945,64506.19813,21.43099332
golf_new17,8025.699427,30032.15208,20.73316337,14781.01971,60386.04627,18.96408777
golf_new18,7255.349668,22752.19711,23.63984567,14861.64476,48456.36451,22.58694587
golf_new19,12170.59487,34692.68693,25.52514222,22020.88807,70170.46918,23.14462984
golf_new20,18132.33236,31662.33959,35.81619305,26770.83601,64059.38032,28.62132777
golf_new21,4904.883017,21293.47748,18.40947324,13314.22375,46288.27902,21.57587103
golf_new22,13109.65247,28339.12152,31.16217998,24909.23282,57319.57376,29.32040988
volley_new1,8976.361617,37844.62925,18.67411776,17490.96356,75302.51339,18.09369781
volley_new2,3788.325056,28097.38753,11.5278601,10186.20254,58468.87991,14.16855089
volley_new3,5467.831696,38997.59697,11.93341534,12950.03649,78061.31128,13.65070764
volley_new4,5890.155446,38038.60229,13.10969382,11607.76749,77787.5308,12.5614232
volley_new5,3595.228433,33530.94066,9.436216429,9944.231988,69845.66778,11.99444795
volley_new6,4056.644024,36957.77863,9.628652355,8280.034249,77290.42495,9.246841824
volley_new7,6651.621322,33672.95931,16.10921765,14311.81983,68237.60965,16.70510312
volley_new8,5507.163191,38449.09748,12.22715382,11368.48328,77663.19001,12.29706524
volley_new9,4352.147558,33983.67801,11.08083659,9919.540833,67772.20853,12.29921884
golf1,5489.046436,23912.04639,18.34095931,10701.20014,48718.00692,17.44365829
golf2,6128.837568,28847.05592,17.19316172,13271.95571,59316.89028,17.61418223
golf3,11576.1066,31329.11015,26.3820321,23957.87452,64895.68914,26.01118289
golf4,15989.15177,33268.26012,32.03639831,28785.11758,67442.84076,29.12170857
golf5,22059.78191,30602.38076,41.4016923,36713.31412,60642.71835,36.7818966
golf6,4924.642047,24517.15899,16.35078832,10063.73299,51680.39131,15.64628837
golf7,9907.27596,31657.80861,23.31845397,17038.8021,63664.14525,20.33318119
golf8,6564.712496,26521.63888,19.44465746,15211.34525,55062.3804,20.88566644
golf9,4469.532535,24031.32416,15.39995481,10937.99133,52323.84607,16.71180947
